{"d": {"value": "(2023, 10, 12, 23, 13, 47, 3, 285)", "timestamp": "(2023, 10, 12, 23, 13, 47, 3, 285)"}, "r": 1}
{"d": {"value": "(2023, 10, 12, 23, 13, 47, 3, 285)", "timestamp": "(2023, 10, 12, 23, 13, 47, 3, 285)"}, "r": 2}
{"d": {"value": "(2023, 10, 12, 23, 13, 53, 3, 285)", "timestamp": "(2023, 10, 12, 23, 13, 53, 3, 285)"}, "r": 3}
{"d": {"value": "(2023, 10, 12, 23, 13, 53, 3, 285)", "timestamp": "(2023, 10, 12, 23, 13, 53, 3, 285)"}, "r": 4}
{"d": {"value": "(2023, 10, 12, 23, 17, 57, 3, 285)", "timestamp": "(2023, 10, 12, 23, 17, 58, 3, 285)"}, "r": 5}
{"d": {"value": "(2023, 10, 12, 23, 17, 58, 3, 285)", "timestamp": "(2023, 10, 12, 23, 17, 58, 3, 285)"}, "r": 6}
{"d": {"value": "(2023, 10, 12, 23, 18, 1, 3, 285)", "timestamp": "(2023, 10, 12, 23, 18, 1, 3, 285)"}, "r": 7}
{"d": {"value": "(2023, 10, 12, 23, 18, 2, 3, 285)", "timestamp": "(2023, 10, 12, 23, 18, 2, 3, 285)"}, "r": 8}
{"d": {"value": "(2023, 10, 12, 23, 18, 11, 3, 285)", "timestamp": "(2023, 10, 12, 23, 18, 11, 3, 285)"}, "r": 9}
{"d": {"value": "(2023, 10, 12, 23, 18, 11, 3, 285)", "timestamp": "(2023, 10, 12, 23, 18, 11, 3, 285)"}, "r": 10}
